{
	"widgets": [
		{
			"nodeId": "STARTFLOW",
			"nodeType": "STARTFLOW",
			"icon": "#<images>#/ssquare/widget-icon/start.png",
			"nodeIcon": "",
			"nodeName": "START",
			"buttonName": "START",
			"style": "",
			"height": 48,
			"width": 48,
			"panelWidth" : 576,
			"multiplicities": {
				"source": true,
				"attr": null,
				"value": null,
				"min": 1,
				"max": 1,
				"validNeighbors": {
					"allow": [
						"ALL"
					],
					"block": [
						"end",
						"loop"
					]
				},
				"countError": "Only 1 targets allowed",
				"typeError": "Can not connect from other nodes.",
				"validNeighborsAllowed": ""
			}
		},
		{
			"nodeId": "ENDFLOW",
			"nodeType": "ENDFLOW",
			"icon": "#<images>#/ssquare/widget-icon/end.png",
			"nodeIcon": "",
			"nodeName": "END",
			"buttonName": "END",
			"style": "",
			"height": 48,
			"width": 48,
			"panelWidth" : 576,
			"multiplicities": {
				"source": true,
				"attr": null,
				"value": null,
				"min": 1,
				"max": 0,
				"validNeighbors": {
					"allow": [
						"ALL"
					],
					"block": [
						"start",
						"end",
						"loop",
						"decision"
					]
				},
				"countError": "Can not connect to other nodes.",
				"typeError": "Can not connect to Start node",
				"validNeighborsAllowed": ""
			}
		},
		{
			"nodeId": "CODE",
			"nodeType": "CODE",
			"icon": "#<images>#/ssquare/widget-icon/code.png",
			"nodeIcon": "#<images>#/ssquare/node-icon/iconCode.png",
			"nodeName": "{ CODE }",
			"buttonName": "CODE",
			"style": "",
			"height": 64,
			"width": 112,
			"panelWidth" : 576,
			"multiplicities": {
				"source": true,
				"attr": null,
				"value": null,
				"min": 0,
				"max": 1,
				"validNeighbors": {
					"allow": [
						"ALL"
					],
					"block": [
						"start"
					]
				},
				"countError": "Only 1 targets allowed",
				"typeError": "Can not connect to Start node",
				"validNeighborsAllowed": ""
			}
		},
		{
			"nodeId": "SCREEN",
			"nodeType": "SCREEN",
			"icon": "#<images>#/ssquare/widget-icon/screen.png",
			"nodeIcon": "#<images>#/ssquare/node-icon/iconScreen.png",
			"nodeName": "[ SCREEN ]",
			"buttonName": "SCREEN",
			"style": "",
			"height": 64,
			"width": 144,
			"panelWidth" : 650,
			"multiplicities": {
				"source": true,
				"attr": null,
				"value": null,
				"min": 0,
				"max": 1,
				"validNeighbors": {
					"allow": [
						"ALL"
					],
					"block": [
						"start"
					]
				},
				"countError": "Only 1 targets allowed",
				"typeError": "Can not connect to Start node",
				"validNeighborsAllowed": ""
			}
		},
		{
			"nodeId": "KEY",
			"nodeType": "KEY",
			"icon": "#<images>#/ssquare/widget-icon/key.png",
			"nodeIcon": "",
			"nodeName": "KEY",
			"buttonName": "KEY",
			"style": "",
			"height": 48,
			"width": 80,
			"panelWidth" : 576,
			"multiplicities": {
				"source": true,
				"attr": null,
				"value": null,
				"min": 0,
				"max": 1,
				"validNeighbors": {
					"allow": [
						"ALL"
					],
					"block": [
						"start"
					]
				},
				"countError": "Only 1 targets allowed",
				"typeError": "Can not connect to Start node",
				"validNeighborsAllowed": ""
			}
		},
		{
			"nodeId": "DECISION",
			"nodeType": "DECISION",
			"icon": "#<images>#/ssquare/widget-icon/decision.png",
			"nodeIcon": "",
			"nodeName": "",
			"buttonName": "DECISION",
			"style": "",
			"height": 48,
			"width": 48,
			"panelWidth" : 576,
			"multiplicities": {
				"source": true,
				"attr": null,
				"value": null,
				"min": 0,
				"max": 3,
				"validNeighbors": {
					"allow": [
						"ALL"
					],
					"block": [
						"start"
					]
				},
				"countError": "Only 1 targets allowed",
				"typeError": "Can not connect to Start node",
				"validNeighborsAllowed": ""
			}
		},
		{
			"nodeId": "MENU",
			"nodeType": "MENU",
			"nodeName": "{ MENU }",
			"buttonName": "MENU",
			"icon": "#<images>#/ssquare/widget-icon/munu.png",
			"nodeIcon": "#<images>#/ssquare/node-icon/iconMenu.png",
			"style": "",
			"height": 64,
			"width": 112,
			"panelWidth" : 800,
			"multiplicities": {
				"source": true,
				"attr": null,
				"value": null,
				"min": 0,
				"max": 1,
				"validNeighbors": {
					"allow": [
						"ALL"
					],
					"block": [
						"start"
					]
				},
				"countError": "Only 1 targets allowed",
				"typeError": "Can not connect to Start node",
				"validNeighborsAllowed": ""
			}
		},
		{
			"nodeId": "BRMS",
			"nodeType": "BRMS",
			"nodeName": "{ RULE }",
			"buttonName": "BUSINESS RULE",
			"icon": "#<images>#/ssquare/widget-icon/brms.png",
			"nodeIcon": "#<images>#/ssquare/node-icon/iconBusinessRule.png",
			"style": "",
			"height": 64,
			"width": 112,
			"panelWidth" : 800,
			"multiplicities": {
				"source": true,
				"attr": null,
				"value": null,
				"min": 0,
				"max": 1,
				"validNeighbors": {
					"allow": [
						"ALL"
					],
					"block": [
						"start"
					]
				},
				"countError": "Only 1 targets allowed",
				"typeError": "Can not connect to Start node",
				"validNeighborsAllowed": ""
			}
		},
		{
			"nodeId": "PROGRAMCALL",
			"nodeType": "PROGRAMCALL",
			"nodeName": "{ PROG CALL }",
			"buttonName": "PROGRAM CALL",
			"icon": "#<images>#/ssquare/widget-icon/programcall.png",
			"nodeIcon": "#<images>#/ssquare/node-icon/iconProgramCall.png",
			"style": "",
			"height": 64,
			"width": 144,
			"panelWidth" : 1366,
			"multiplicities": {
				"source": true,
				"attr": null,
				"value": null,
				"min": 0,
				"max": 1,
				"validNeighbors": {
					"allow": [
						"ALL"
					],
					"block": [
						"start"
					]
				},
				"countError": "Only 1 targets allowed",
				"typeError": "Can not connect to Start node",
				"validNeighborsAllowed": ""
			}
		},
		{
			"nodeId": "CICSCALL",
			"nodeType": "CICSCALL",
			"nodeName": "{ CICS CALL }",
			"buttonName": "CICS  CALL",
			"icon": "#<images>#/ssquare/widget-icon/cicscall.png",
			"nodeIcon": "#<images>#/ssquare/node-icon/iconCICSCall.png",
			"style": "",
			"height": 64,
			"width": 112,
			"panelWidth" : 576,
			"multiplicities": {
				"source": true,
				"attr": null,
				"value": null,
				"min": 0,
				"max": 1,
				"validNeighbors": {
					"allow": [
						"ALL"
					],
					"block": [
						"start"
					]
				},
				"countError": "Only 1 targets allowed",
				"typeError": "Can not connect to Start node",
				"validNeighborsAllowed": ""
			}
		},
		{
			"nodeId": "DB",
			"nodeType": "DB",
			"nodeName": "{ DATABASE }",
			"buttonName": "DATABASE",
			"icon": "#<images>#/ssquare/widget-icon/db.png",
			"nodeIcon": "#<images>#/ssquare/node-icon/iconDB.png",
			"style": "",
			"height": 64,
			"width": 112,
			"panelWidth" : 800,
			"multiplicities": {
				"source": true,
				"attr": null,
				"value": null,
				"min": 0,
				"max": 1,
				"validNeighbors": {
					"allow": [
						"ALL"
					],
					"block": [
						"start"
					]
				},
				"countError": "Only 1 targets allowed",
				"typeError": "Can not connect to Start node",
				"validNeighborsAllowed": ""
			}
		},
		{
			"nodeId": "WS",
			"nodeType": "WS",
			"nodeName": "{ WEB SERVICE }",
			"buttonName": "WEB SERVICE",
			"icon": "#<images>#/ssquare/widget-icon/ws.png",
			"nodeIcon": "#<images>#/ssquare/node-icon/iconWebService.png",
			"style": "",
			"height": 64,
			"width": 144,
			"panelWidth" : 576,
			"multiplicities": {
				"source": true,
				"attr": null,
				"value": null,
				"min": 0,
				"max": 1,
				"validNeighbors": {
					"allow": [
						"ALL"
					],
					"block": [
						"start"
					]
				},
				"countError": "Only 1 targets allowed",
				"typeError": "Can not connect to Start node",
				"validNeighborsAllowed": ""
			}
		},
		{
			"nodeId": "SERVICE",
			"nodeType": "SERVICE",
			"nodeName": "{ SUB SERVICE }",
			"buttonName": "SUB SERVICE",
			"icon": "#<images>#/ssquare/widget-icon/subservice.png",
			"nodeIcon": "#<images>#/ssquare/node-icon/iconSubService.png",
			"style": "",
			"height": 64,
			"width": 112,
			"panelWidth" : 576,
			"multiplicities": {
				"source": true,
				"attr": null,
				"value": null,
				"min": 0,
				"max": 1,
				"validNeighbors": {
					"allow": [
						"ALL"
					],
					"block": [
						"start"
					]
				},
				"countError": "Only 1 targets allowed",
				"typeError": "Can not connect to Start node",
				"validNeighborsAllowed": ""
			}
		},
		{
			"nodeId": "MULTISERVICE",
			"nodeType": "MULTISERVICE",
			"nodeName": "{ PARALLEL }",
			"buttonName": "PARALLEL",
			"icon": "#<images>#/ssquare/widget-icon/multisub.png",
			"nodeIcon": "#<images>#/ssquare/node-icon/iconMultiSubService.png",
			"style": "",
			"height": 64,
			"width": 144,
			"panelWidth" : 576,
			"multiplicities": {
				"source": true,
				"attr": null,
				"value": null,
				"min": 0,
				"max": 1,
				"validNeighbors": {
					"allow": [
						"ALL"
					],
					"block": [
						"start"
					]
				},
				"countError": "Only 1 targets allowed",
				"typeError": "Can not connect to Start node",
				"validNeighborsAllowed": ""
			}
		},
		{
			"nodeId": "SELECTIONLIST",
			"nodeType": "SELECTIONLIST",
			"nodeName": "{ SELECTION }",
			"buttonName": "SELECTION LIST",
			"icon": "#<images>#/ssquare/widget-icon/selection.png",
			"nodeIcon": "#<images>#/ssquare/node-icon/icon_listSelection.png",
			"style": "",
			"height": 64,
			"width": 112,
			"panelWidth" : 800,
			"multiplicities": {
				"source": true,
				"attr": null,
				"value": null,
				"min": 0,
				"max": 1,
				"validNeighbors": {
					"allow": [
						"ALL"
					],
					"block": [
						"start"
					]
				},
				"countError": "Only 1 targets allowed",
				"typeError": "Can not connect to Start node",
				"validNeighborsAllowed": ""
			}
		}
	]
}